<?xml version="1.0" encoding="UTF-8"?>
<session version="1.0">
<refactoring comment="Delete resource &apos;PAP&apos;" deleteContents="false" description="Delete resource &apos;PAP&apos;" element1="/PAP" flags="7" id="org.eclipse.ltk.core.refactoring.delete.resources" resources="1" stamp="1459600441994"/>
</session>